arch                                  	circuit        	script_params                           	vtr_flow_elapsed_time	error	odin_synth_time	max_odin_mem	abc_depth	abc_synth_time	abc_cec_time	abc_sec_time	max_abc_mem	ace_time	max_ace_mem	num_clb	num_io	num_memories	num_mult	vpr_revision          	vpr_status	hostname                           	rundir                                                                                                                                                                                                   	max_vpr_mem	num_primary_inputs	num_primary_outputs	num_pre_packed_nets	num_pre_packed_blocks	num_netlist_clocks	num_post_packed_nets	num_post_packed_blocks	device_width	device_height	device_grid_tiles	device_limiting_resources	device_name	pack_time	placed_wirelength_est	place_time	placed_CPD_est	placed_setup_TNS_est	placed_setup_WNS_est	min_chan_width	routed_wirelength	min_chan_width_route_success_iteration	logic_block_area_total	logic_block_area_used	min_chan_width_routing_area_total	min_chan_width_routing_area_per_tile	min_chan_width_route_time	crit_path_routed_wirelength	crit_path_route_success_iteration	crit_path_total_nets_routed	crit_path_total_connections_routed	crit_path_total_heap_pushes	crit_path_total_heap_pops	critical_path_delay	setup_TNS	setup_WNS	hold_TNS	hold_WNS	crit_path_routing_area_total	crit_path_routing_area_per_tile	crit_path_route_time
k6_frac_N10_frac_chain_mem32K_40nm.xml	multiclock.blif	common_--timing_report_detail_netlist   	0.37                 	     	-1             	-1          	-1       	-1            	-1          	-1          	-1         	-1      	-1         	2      	5     	0           	0       	v8.0.0-1528-g14c533d8a	success   	betzgrp-wintermute.eecg.utoronto.ca	/home/kmurray/trees/vtr/vtr_flow/tasks/regression_tests/vtr_reg_strong/strong_timing_report_detail/run007/k6_frac_N10_frac_chain_mem32K_40nm.xml/multiclock.blif/common_--timing_report_detail_netlist   	65796      	5                 	3                  	11                 	14                   	2                 	9                   	10                    	4           	4            	16               	clb                      	auto       	0.01     	16                   	0.02      	0.545         	-3.13055            	-0.545              	20            	26               	8                                     	107788                	107788               	10441.3                          	652.579                             	0.01                     	20                         	2                                	8                          	8                                 	148                        	91                       	0.721454           	-3.67021 	-0.721454	0       	0       	13752.8                     	859.551                        	0.00                
k6_frac_N10_frac_chain_mem32K_40nm.xml	multiclock.blif	common_--timing_report_detail_aggregated	0.37                 	     	-1             	-1          	-1       	-1            	-1          	-1          	-1         	-1      	-1         	2      	5     	0           	0       	v8.0.0-1528-g14c533d8a	success   	betzgrp-wintermute.eecg.utoronto.ca	/home/kmurray/trees/vtr/vtr_flow/tasks/regression_tests/vtr_reg_strong/strong_timing_report_detail/run007/k6_frac_N10_frac_chain_mem32K_40nm.xml/multiclock.blif/common_--timing_report_detail_aggregated	65824      	5                 	3                  	11                 	14                   	2                 	9                   	10                    	4           	4            	16               	clb                      	auto       	0.01     	16                   	0.02      	0.545         	-3.13055            	-0.545              	20            	26               	8                                     	107788                	107788               	10441.3                          	652.579                             	0.01                     	20                         	2                                	8                          	8                                 	148                        	91                       	0.721454           	-3.67021 	-0.721454	0       	0       	13752.8                     	859.551                        	0.00                
k6_frac_N10_frac_chain_mem32K_40nm.xml	multiclock.blif	common_--timing_report_detail_detailed  	0.42                 	     	-1             	-1          	-1       	-1            	-1          	-1          	-1         	-1      	-1         	2      	5     	0           	0       	v8.0.0-1528-g14c533d8a	success   	betzgrp-wintermute.eecg.utoronto.ca	/home/kmurray/trees/vtr/vtr_flow/tasks/regression_tests/vtr_reg_strong/strong_timing_report_detail/run007/k6_frac_N10_frac_chain_mem32K_40nm.xml/multiclock.blif/common_--timing_report_detail_detailed  	65860      	5                 	3                  	11                 	14                   	2                 	9                   	10                    	4           	4            	16               	clb                      	auto       	0.01     	16                   	0.03      	0.545         	-3.13055            	-0.545              	20            	26               	8                                     	107788                	107788               	10441.3                          	652.579                             	0.01                     	20                         	2                                	8                          	8                                 	148                        	91                       	0.721454           	-3.67021 	-0.721454	0       	0       	13752.8                     	859.551                        	0.00                
